Introduction to Animal Movement Analyses
…
  # Check on which animals included and timezone
  group_by(id) %>% 
  
  # Summarize the dataset to highlight the number of records and duration of tracking period
  summarize(
    Records = n(),
    #MinLat = min(latitude), MaxLat = max(latitude), MinLong = min(longitude), MaxLong = max(longitude),
    StartDate = min(timeLocal),
    EndDate = max(timeLocal), 
    TrackPeriod_yrs = round(as.duration(min(timeLocal) %--% max(timeLocal)) / dyears(1), digits=1)) %>% 
  
  # Arrange by start date
  arrange(StartDate, id)

## # A tibble: 36 x 5
##       id Records StartDate           EndDate             TrackPeriod_yrs
##    <dbl>   <int> <dttm>              <dttm>                        <dbl>
##  1  2846    6848 2010-05-26 00:01:00 2011-08-11 14:00:00             1.2
##  2  2831   11412 2010-05-26 06:00:00 2012-06-13 18:00:00             2.1
##  3  2839    7187 2010-05-26 07:00:00 2011-09-27 21:01:00             1.3
##  4  2835    2862 2010-05-27 00:00:00 2010-11-24 21:01:00             0.5
##  5  2844   14869 2010-05-27 07:00:00 2013-01-15 08:00:00             2.6
##  6  2843    4622 2010-05-27 08:00:00 2011-03-28 17:00:00             0.8
##  7  2832   14732 2010-05-27 21:01:00 2013-01-15 16:00:00             2.6
##  8  2830    1310 2010-05-28 07:00:00 2010-08-18 00:02:00             0.2
##  9  2833    4403 2010-05-28 08:00:00 2011-03-18 18:01:00             0.8
## 10  2829   11533 2010-05-28 10:00:00 2012-06-21 12:00:00             2.1
## # ... with 26 more rows
…
