Introduction to Resource Selection
…
# Summarize the distribution of time intervals between successive locations to get a general impression for the sampling rate.
summarize_sampling_rate(wb)

## # A tibble: 1 x 9
##     min    q1 median  mean    q3   max    sd     n unit 
##   <dbl> <dbl>  <dbl> <dbl> <dbl> <dbl> <dbl> <int> <chr>
## 1  0.95     1      1  1.55  2.97    91  1.96 11772 hour

# Let's sample to 3 hours, but could do others that are more appropriate (daily?)
# Important to be able to defend 'why' you are doing something
wb <- wb %>% track_resample(rate = hours(3), tolerance = minutes(20))
wb

## # A tibble: 5,876 x 8
##          x_       y_ t_                     id animal  sex      sl burst_
##  *    <dbl>    <dbl> <dttm>              <int> <chr>   <chr> <dbl>  <dbl>
##  1 1241940. -214144. 2010-10-20 11:00:00 30077 Ntishya f     232.       1
##  2 1241740. -214254. 2010-10-20 14:00:00 30077 Ntishya f     187.       1
##  3 1241750. -214391. 2010-10-20 17:00:00 30077 Ntishya f     176.       1
##  4 1241574. -214347. 2010-10-20 21:01:00 30077 Ntishya f     104.       2
##  5 1241518. -214434. 2010-10-21 00:00:00 30077 Ntishya f     121.       2
##  6 1241621. -214370. 2010-10-21 03:00:00 30077 Ntishya f      95.4      2
##  7 1241716. -214361. 2010-10-21 06:00:00 30077 Ntishya f     156.       2
##  8 1241671. -214269. 2010-10-21 09:00:00 30077 Ntishya f      88.4      2
##  9 1241937. -214142. 2010-10-21 12:00:00 30077 Ntishya f     456.       2
## 10 1241745. -214482. 2010-10-21 15:00:00 30077 Ntishya f       0        2
## # ... with 5,866 more rows
…
wb.sim # We see the structure has 100 rows (n.frac (5) x n.rep (20) = 100) # File loaded at the beginning of script

## # A tibble: 100 x 3
##     n.pts  frac result          
##     <dbl> <dbl> <list>          
##  1   1176     1 <tibble [8 x 5]>
##  2   5880     5 <tibble [8 x 5]>
##  3  23520    20 <tibble [8 x 5]>
##  4  58800    50 <tibble [8 x 5]>
##  5 117600   100 <tibble [8 x 5]>
##  6   1176     1 <tibble [8 x 5]>
##  7   5880     5 <tibble [8 x 5]>
##  8  23520    20 <tibble [8 x 5]>
##  9  58800    50 <tibble [8 x 5]>
## 10 117600   100 <tibble [8 x 5]>
## # ... with 90 more rows
…
